{
  "qdatetimepicker": {},
  "@quasar/icon-genie": {
    "minify_dev": "pngquant",
    "minify_build": "pngquant",
    "cordova": {
      "background_color": "#000074",
      "splashscreen_type": "pure"
    },
    "build_always": true,
    "__internal": {
      "dev": {
        "spa": {
          "iconHash": "5dcdf0f62e6ff9a17f2dbb34723f87ed"
        },
        "capacitor": {
          "iconHash": "5dcdf0f62e6ff9a17f2dbb34723f87ed",
          "splashscreenHash": "5dcdf0f62e6ff9a17f2dbb34723f87ed",
          "splashscreenType": "pure",
          "backgroundColor": "#000074"
        }
      },
      "build": {
        "spa": {
          "iconHash": "5dcdf0f62e6ff9a17f2dbb34723f87ed"
        }
      }
    }
  },
  "@quasar/testing": {
    "harnesses": [
      "unit-jest",
      "e2e-cypress"
    ]
  },
  "@quasar/testing-unit-jest": {
    "babel": "babelrc",
    "options": []
  },
  "@quasar/testing-e2e-cypress": {
    "options": []
  }
}